<svg xmlns="http://www.w3.org/2000/svg" width="68.504" height="67.533" viewBox="0 0 68.504 67.533">
  <g id="layer1" transform="translate(301.158 -107.841)">
    <g id="g1468" transform="translate(25.011 -5.558)">
      <g id="g1282" transform="translate(12.853 -13.2)">
        <path id="rect370" d="M-319.618,127.6h43.1a4.989,4.989,0,0,1,5,5v31.8a4.989,4.989,0,0,1-5,5h-43.1a4.989,4.989,0,0,1-5-5V132.6A4.989,4.989,0,0,1-319.618,127.6Z" fill="#33cbeb" stroke="#000" stroke-linecap="round" stroke-linejoin="round" stroke-width="2"/>
        <g id="g986" transform="translate(0 -89.974)">
          <rect id="rect1225" width="5.732" height="22.926" transform="translate(-286.579 221.447)" fill="#077991"/>
          <path id="rect976" d="M-295.43,228.334a.535.535,0,0,0-.535.535v15.514a.535.535,0,0,0,.535.535h4.582a.535.535,0,0,0,.535-.535V228.869a.535.535,0,0,0-.535-.535Zm.535,1.07h3.512v14.443h-3.512Z" fill="#077991"/>
          <rect id="rect1216" width="5.732" height="9.908" transform="translate(-305.629 234.466)" fill="#077991"/>
          <path id="rect980" d="M-315.066,231.9a.478.478,0,0,0-.479.477v12.066a.478.478,0,0,0,.14.339.478.478,0,0,0,.339.14h4.7a.478.478,0,0,0,.339-.14.478.478,0,0,0,.14-.339V232.373a.478.478,0,0,0-.479-.477Zm.479.955h3.74V243.96h-3.74Z" fill="#077991"/>
        </g>
        <g id="g1131-7" transform="translate(25.474 58.518)">
          <circle id="circle1127-6" cx="1.842" cy="1.842" r="1.842" transform="translate(-318.332 103.163)" fill="#077991"/>
          <g id="path1129-9">
            <path id="path1185-4" d="M-312.623,104.287a.718.718,0,0,0-.717.719.718.718,0,0,0,.717.717h8.783a.718.718,0,0,0,.719-.717.718.718,0,0,0-.21-.508.718.718,0,0,0-.508-.21Z" fill="#077991"/>
            <path id="path1187-4" d="M-312.622,105h8.783" fill="#077991"/>
          </g>
        </g>
      </g>
      <g id="g1312" transform="translate(-0.551 67.516)">
        <path id="rect1244" d="M-319.618,70.614h43.1a4.989,4.989,0,0,1,5,5v31.8a4.989,4.989,0,0,1-5,5h-43.1a4.989,4.989,0,0,1-5-5v-31.8A4.989,4.989,0,0,1-319.618,70.614Z" fill="#ff8bff" stroke="#000" stroke-linecap="round" stroke-linejoin="round" stroke-width="2"/>
        <g id="g1272" transform="translate(0 0.367)">
          <g id="g1117" transform="translate(76.395 -172.989)">
            <path id="path1042" d="M-390.244,264.4a2.788,2.788,0,0,0-2.777,2.775,2.789,2.789,0,0,0,2.777,2.777,2.788,2.788,0,0,0,2.775-2.777A2.786,2.786,0,0,0-390.244,264.4Zm0,1.5a1.263,1.263,0,0,1,1.275,1.275,1.265,1.265,0,0,1-1.275,1.277,1.267,1.267,0,0,1-1.277-1.277A1.265,1.265,0,0,1-390.244,265.9Z" fill="#920075"/>
            <path id="circle1044" d="M-379.8,253.965a2.788,2.788,0,0,0-2.777,2.775,2.789,2.789,0,0,0,2.777,2.777,2.788,2.788,0,0,0,2.775-2.777A2.786,2.786,0,0,0-379.8,253.965Zm0,1.5a1.263,1.263,0,0,1,1.275,1.275,1.265,1.265,0,0,1-1.275,1.277,1.267,1.267,0,0,1-1.277-1.277A1.265,1.265,0,0,1-379.8,255.465Z" fill="#920075"/>
            <path id="circle1046" d="M-369.611,260.719a2.789,2.789,0,0,0-2.777,2.777,2.788,2.788,0,0,0,2.777,2.775,2.786,2.786,0,0,0,2.775-2.775A2.788,2.788,0,0,0-369.611,260.719Zm0,1.5a1.265,1.265,0,0,1,1.275,1.277,1.263,1.263,0,0,1-1.275,1.275,1.265,1.265,0,0,1-1.277-1.275A1.267,1.267,0,0,1-369.611,262.219Z" fill="#920075"/>
            <g id="circle1048">
              <path id="path1151" d="M-358.682,248.438a2.789,2.789,0,0,0-2.777,2.777,2.788,2.788,0,0,0,2.777,2.775,2.788,2.788,0,0,0,2.777-2.775A2.789,2.789,0,0,0-358.682,248.438Zm0,1.5a1.267,1.267,0,0,1,1.277,1.277,1.265,1.265,0,0,1-1.277,1.275,1.265,1.265,0,0,1-1.277-1.275A1.267,1.267,0,0,1-358.682,249.938Z" fill="#920075"/>
              <path id="path1153" d="M-356.655,251.215a2.026,2.026,0,0,1-2.026,2.026,2.026,2.026,0,0,1-2.026-2.026,2.026,2.026,0,0,1,2.026-2.026,2.026,2.026,0,0,1,2.026,2.026Z" fill="#920075"/>
            </g>
            <g id="path1104">
              <path id="path1157" d="M-381.754,257.727l-7.643,7.295a.75.75,0,0,0-.025,1.059.75.75,0,0,0,1.061.025l7.643-7.295a.75.75,0,0,0,.025-1.061.75.75,0,0,0-1.061-.023Z" fill="#920075"/>
              <path id="path1159" d="M-388.879,265.563l7.642-7.295" fill="#920075"/>
            </g>
            <g id="path1106">
              <path id="path1163" d="M-378.275,257.363a.75.75,0,0,0-.469.33.75.75,0,0,0,.232,1.035l6.861,4.342a.75.75,0,0,0,1.033-.232.75.75,0,0,0-.232-1.035l-6.859-4.342a.75.75,0,0,0-.566-.1Z" fill="#920075"/>
              <path id="path1165" d="M-378.111,258.1l6.861,4.342" fill="#920075"/>
            </g>
            <g id="path1108">
              <path id="path1169" d="M-359.184,252.342a.75.75,0,0,0-1.061.025l-8.6,9.031a.75.75,0,0,0,.025,1.061.75.75,0,0,0,1.061-.025l8.6-9.033a.75.75,0,0,0-.027-1.059Z" fill="#920075"/>
              <path id="path1171" d="M-368.3,261.916l8.6-9.032" fill="#920075"/>
            </g>
          </g>
          <g id="g1125" transform="translate(-2.093)">
            <circle id="path1119" cx="1.842" cy="1.842" r="1.842" transform="translate(-318.332 103.163)" fill="#920075"/>
            <path id="path1177" d="M-312.341,104.287a1,1,0,0,0-1,1,1,1,0,0,0,1,1H-300.1a1,1,0,0,0,1-1,1,1,0,0,0-.293-.708,1,1,0,0,0-.708-.293Z" transform="translate(0 -0.282)" fill="#920075"/>
            <path id="path1179" d="M-312.622,105h8.783" fill="#920075"/>
          </g>
          <g id="g1131" transform="translate(21.119)">
            <circle id="circle1127" cx="1.842" cy="1.842" r="1.842" transform="translate(-318.332 103.163)" fill="#920075"/>
            <g id="path1129" transform="translate(-1 -0.512)">
              <path id="path1185" d="M-312.288,104.287a1.028,1.028,0,0,0-1.052,1,1.028,1.028,0,0,0,1.052,1h12.893a1.029,1.029,0,0,0,1.055-1,.976.976,0,0,0-.309-.708,1.084,1.084,0,0,0-.746-.293Z" transform="translate(0.718 0.23)" fill="#920075"/>
              <path id="path1187" d="M-312.622,105h16.076" transform="translate(0 0.512)" fill="#920075"/>
            </g>
          </g>
        </g>
      </g>
    </g>
  </g>
</svg>
