<svg xmlns="http://www.w3.org/2000/svg" width="17.5" height="17.626" viewBox="0 0 17.5 17.626">
  <g id="Icon_feather-edit" data-name="Icon feather-edit" transform="translate(-2.25 -1.942)">
    <path id="Trazado_15523" data-name="Trazado 15523" d="M10.34,6H4.631A1.631,1.631,0,0,0,3,7.631V19.049A1.631,1.631,0,0,0,4.631,20.68H16.049a1.631,1.631,0,0,0,1.631-1.631V13.34" transform="translate(0 -1.862)" fill="none" stroke="#5c0f8b" stroke-linecap="round" stroke-linejoin="round" stroke-width="1.5"/>
    <path id="Trazado_15524" data-name="Trazado 15524" d="M18.531,3.2A1.32,1.32,0,0,1,20.4,5.071L14.488,10.98,12,11.6l.622-2.488Z" transform="translate(-1.784 0)" fill="none" stroke="#5c0f8b" stroke-linecap="round" stroke-linejoin="round" stroke-width="1.5"/>
  </g>
</svg>
