<svg xmlns="http://www.w3.org/2000/svg" width="63.546" height="62.865" viewBox="0 0 63.546 62.865">
  <g id="_002-aprobacion" data-name="002-aprobacion" transform="translate(1.443)">
    <g id="Rectángulo_14407" data-name="Rectángulo 14407" transform="translate(11.557 0.886)" fill="#ffdf75" stroke="#707070" stroke-width="1">
      <rect width="38" height="53" rx="1" stroke="none"/>
      <rect x="0.5" y="0.5" width="37" height="52" rx="0.5" fill="none"/>
    </g>
    <rect id="Rectángulo_14406" data-name="Rectángulo 14406" width="43" height="53" rx="5" transform="translate(-0.443 8.886)" fill="#33cbeb"/>
    <path id="Trazado_1429" data-name="Trazado 1429" d="M55.212,352.709h17.18a1.228,1.228,0,1,0,0-2.456H55.212a1.228,1.228,0,1,0,0,2.456Zm0,0" transform="translate(-47.354 -307.296)"/>
    <path id="Trazado_1430" data-name="Trazado 1430" d="M247.279,422.363a1.229,1.229,0,1,0,.868.36A1.237,1.237,0,0,0,247.279,422.363Zm0,0" transform="translate(-215.83 -370.548)"/>
    <path id="Trazado_1431" data-name="Trazado 1431" d="M73.867,422.363H55.212a1.228,1.228,0,1,0,0,2.456H73.867a1.228,1.228,0,1,0,0-2.456Zm0,0" transform="translate(-47.354 -370.548)"/>
    <path id="Trazado_1432" data-name="Trazado 1432" d="M55.212,136.913H73.835a1.228,1.228,0,1,0,0-2.456H55.212a1.228,1.228,0,1,0,0,2.456Zm0,0" transform="translate(-47.354 -118.004)"/>
    <rect id="Rectángulo_14408" data-name="Rectángulo 14408" width="7" height="17" rx="3.5" transform="translate(45.133 44.649) rotate(-45)" fill="#fff"/>
    <circle id="Elipse_500" data-name="Elipse 500" cx="14.5" cy="14.5" r="14.5" transform="translate(23.557 17.886)" fill="#81e9ff"/>
    <path id="Trazado_1427" data-name="Trazado 1427" d="M61.529,48.812l-9.053-9.053a15.082,15.082,0,0,0,.076-13.478V4.675A4.179,4.179,0,0,0,48.377.5H15.716a4.179,4.179,0,0,0-4.175,4.175V8.358H4.175A4.179,4.179,0,0,0,0,12.533V59.191a4.179,4.179,0,0,0,4.175,4.175H40.519a4.179,4.179,0,0,0,4.175-4.175V55.507h3.683a4.182,4.182,0,0,0,3.936-2.784l2.652,2.652a4.642,4.642,0,0,0,6.564-6.564ZM14,4.675a1.721,1.721,0,0,1,1.719-1.719H48.377A1.721,1.721,0,0,1,50.1,4.675V22.727c-.125-.134-.251-.267-.382-.4a14.936,14.936,0,0,0-5.02-3.314V12.533a4.179,4.179,0,0,0-4.175-4.175H14Zm-.062,3.684h-.017C13.925,8.343,13.93,8.344,13.935,8.358Zm-2.315,0H11.6C11.61,8.345,11.615,8.343,11.62,8.358ZM42.238,59.191a1.721,1.721,0,0,1-1.719,1.719H4.175a1.721,1.721,0,0,1-1.719-1.719V12.533a1.721,1.721,0,0,1,1.719-1.719H40.519a1.721,1.721,0,0,1,1.719,1.719v5.736a15.007,15.007,0,0,0-16.332,7.508H7.858a1.228,1.228,0,0,0,0,2.456H24.846a15.115,15.115,0,0,0-.659,6.4H7.858a1.228,1.228,0,1,0,0,2.456H24.672A14.988,14.988,0,0,0,39.1,47.951a15.141,15.141,0,0,0,3.14-.33ZM30.219,41.824a12.557,12.557,0,1,1,17.759,0A12.571,12.571,0,0,1,30.219,41.824ZM50.1,51.333a1.721,1.721,0,0,1-1.719,1.719H44.694V46.875q.618-.248,1.218-.552L50.1,50.507Zm9.7,2.306a2.185,2.185,0,0,1-3.091,0l-8.646-8.646A15.048,15.048,0,0,0,51.147,41.9l8.646,8.646A2.189,2.189,0,0,1,59.792,53.639Zm0,0" transform="translate(-1.443 -0.5)"/>
    <path id="Trazado_15235" data-name="Trazado 15235" d="M98.057,265.692A1.207,1.207,0,1,0,96.35,267.4l4.025,4.024a1.239,1.239,0,0,0,.851.351,1.214,1.214,0,0,0,.853-.354l8.051-8.051a1.207,1.207,0,0,0-1.707-1.707l-7.194,7.2Z" transform="translate(-65.496 -234.196)"/>
  </g>
</svg>
