<svg xmlns="http://www.w3.org/2000/svg" width="72.112" height="69.107" viewBox="0 0 72.112 69.107">
  <g id="_002-like" data-name="002-like" transform="translate(72.112 69.107) rotate(180)">
    <g id="Grupo_6050" data-name="Grupo 6050" transform="translate(0 0)">
      <g id="Grupo_6049" data-name="Grupo 6049">
        <path id="Trazado_12530" data-name="Trazado 12530" d="M72.112,51.981a6.676,6.676,0,0,0-1.956-4.729,7.46,7.46,0,0,0,1.923-5.736A7.766,7.766,0,0,0,64.243,34.7H45.683c.919-2.791,2.392-7.908,2.392-12.019,0-6.517-5.538-12.019-9.014-12.019a9.437,9.437,0,0,0-5.444,1.83,1.5,1.5,0,0,0-.565,1.175V23.86L24.395,42.607l-.358.183v-.574a1.5,1.5,0,0,0-1.5-1.5H7.512A7.519,7.519,0,0,0,0,48.225V72.263a7.518,7.518,0,0,0,7.512,7.512h9.014a7.529,7.529,0,0,0,7.07-4.967,19.587,19.587,0,0,0,7.953,1.962h27.58a6.912,6.912,0,0,0,6.809-5.246,6.782,6.782,0,0,0-.541-4.516A6.735,6.735,0,0,0,68.4,57.993,6.733,6.733,0,0,0,72.112,51.981Zm-6.337,3.708a1.5,1.5,0,0,0-.859,2.587A3.722,3.722,0,0,1,62.774,64.7a1.5,1.5,0,0,0-.859,2.587A3.715,3.715,0,0,1,63,70.874a3.887,3.887,0,0,1-3.873,2.891H31.549c-2.44,0-6.532-1.145-7.95-2.566a1.5,1.5,0,0,0-2.566,1.064,4.512,4.512,0,0,1-4.507,4.507H7.512A4.512,4.512,0,0,1,3,72.263V48.225a4.512,4.512,0,0,1,4.507-4.507H21.033v1.5a1.509,1.509,0,0,0,.715,1.28,1.536,1.536,0,0,0,1.46.063l3-1.5a1.5,1.5,0,0,0,.691-.712l9.014-19.53a1.53,1.53,0,0,0,.138-.631v-9.7a6.336,6.336,0,0,1,3-.814c1.647,0,6.009,4.092,6.009,9.014,0,5.288-2.878,12.911-2.905,12.986a1.5,1.5,0,0,0,1.4,2.037H64.243a4.744,4.744,0,0,1,4.843,4.083,4.489,4.489,0,0,1-2.139,4.252,1.5,1.5,0,0,0,.1,2.617,3.72,3.72,0,0,1-1.274,7.028Z" transform="translate(0 -10.667)" fill="#ad0808"/>
      </g>
    </g>
    <g id="Grupo_6052" data-name="Grupo 6052" transform="translate(21.033 33.051)">
      <g id="Grupo_6051" data-name="Grupo 6051">
        <path id="Trazado_12531" data-name="Trazado 12531" d="M150.835,245.333a1.5,1.5,0,0,0-1.5,1.5v27.042a1.5,1.5,0,1,0,3,0V246.835A1.5,1.5,0,0,0,150.835,245.333Z" transform="translate(-149.333 -245.333)" fill="#ad0808"/>
      </g>
    </g>
  </g>
</svg>
